city,state
Yonkers,NY
Boston,MA
Ft. Lauderdale,FL
West Palm Beach,FL
Baltimore,MD
Washington,DC
Boise,ID
Sacramento,CA
Los Angeles,CA
San Bernadino,CA
Victorville,CA
Oakland,CA
Berkeley,CA
Portland,OR
Eugene,OR
Tacoma,WA
Albuquerque,NM
Richmond,VA
